^C:\USERS\NIKKI\SOURCE\REPOS\HOMEWORK4.11\HOMEWORK4.11.CPP
C:\USERS\NIKKI\SOURCE\REPOS\HOMEWORK4.11\DEBUG\VC142.PDB
C:\USERS\NIKKI\SOURCE\REPOS\HOMEWORK4.11\DEBUG\VC142.IDB
C:\USERS\NIKKI\SOURCE\REPOS\HOMEWORK4.11\DEBUG\HOMEWORK4.11.OBJ
